Chapter 10 Additional programming concepts | Introduction to bioinformatics
…
library("tidyverse")
library("rWSBIM1207")
fls <- expressions.csv()
read_csv(fls[1])

## Rows: 570 Columns: 4
## ── Column specification ────────────────────────────────────────────────────────────────────────────────────────────────────────────────────────────────────────────────
## Delimiter: ","
## chr (3): sampleID, patient, type
## dbl (1): A1BG
## 
## ℹ Use `spec()` to retrieve the full column specification for this data.
## ℹ Specify the column types or set `show_col_types = FALSE` to quiet this message.

## # A tibble: 570 × 4
##    sampleID         patient      type   A1BG
##    <chr>            <chr>        <chr> <dbl>
##  1 TCGA-05-4244-01A TCGA-05-4244 tumor  26.0
##  2 TCGA-05-4249-01A TCGA-05-4249 tumor 120. 
##  3 TCGA-05-4250-01A TCGA-05-4250 tumor  50.9
##  4 TCGA-05-4382-01A TCGA-05-4382 tumor 146. 
##  5 TCGA-05-4384-01A TCGA-05-4384 tumor 127. 
##  6 TCGA-05-4389-01A TCGA-05-4389 tumor  67.1
##  7 TCGA-05-4390-01A TCGA-05-4390 tumor 165. 
##  8 TCGA-05-4395-01A TCGA-05-4395 tumor  22.0
##  9 TCGA-05-4396-01A TCGA-05-4396 tumor  17.4
## 10 TCGA-05-4397-01A TCGA-05-4397 tumor 127. 
## # … with 560 more rows

read_csv(fls[2])

## Rows: 570 Columns: 4
## ── Column specification ────────────────────────────────────────────────────────────────────────────────────────────────────────────────────────────────────────────────
## Delimiter: ","
## chr (3): sampleID, patient, type
## dbl (1): A1CF
## 
## ℹ Use `spec()` to retrieve the full column specification for this data.
## ℹ Specify the column types or set `show_col_types = FALSE` to quiet this message.

## # A tibble: 570 × 4
##    sampleID         patient      type    A1CF
##    <chr>            <chr>        <chr>  <dbl>
##  1 TCGA-05-4244-01A TCGA-05-4244 tumor  0    
##  2 TCGA-05-4249-01A TCGA-05-4249 tumor  0.322
##  3 TCGA-05-4250-01A TCGA-05-4250 tumor  0    
##  4 TCGA-05-4382-01A TCGA-05-4382 tumor  0    
##  5 TCGA-05-4384-01A TCGA-05-4384 tumor  0    
##  6 TCGA-05-4389-01A TCGA-05-4389 tumor 36.2  
##  7 TCGA-05-4390-01A TCGA-05-4390 tumor  0    
##  8 TCGA-05-4395-01A TCGA-05-4395 tumor  0    
##  9 TCGA-05-4396-01A TCGA-05-4396 tumor 15.9  
## 10 TCGA-05-4397-01A TCGA-05-4397 tumor  0    
## # … with 560 more rows
…
## read the first one
res <- read_csv(fls[1])
## iterate over the other data
for (i in 2:length(fls)) {
    data_i <- read_csv(fls[i], progress = FALSE)
    res <- full_join(res, data_i)
}
res

## # A tibble: 570 × 8
##    sampleID         patient      type   A1BG   A1CF A2BP1 A2LD1   A2ML1
##    <chr>            <chr>        <chr> <dbl>  <dbl> <dbl> <dbl>   <dbl>
##  1 TCGA-05-4244-01A TCGA-05-4244 tumor  26.0  0      1.75 136.    0.349
##  2 TCGA-05-4249-01A TCGA-05-4249 tumor 120.   0.322  1.61  89.1   1.61 
##  3 TCGA-05-4250-01A TCGA-05-4250 tumor  50.9  0      0    151.    0    
##  4 TCGA-05-4382-01A TCGA-05-4382 tumor 146.   0      0    112.    4.79 
##  5 TCGA-05-4384-01A TCGA-05-4384 tumor 127.   0      0     87.6   0    
##  6 TCGA-05-4389-01A TCGA-05-4389 tumor  67.1 36.2    0    112.   36.6  
##  7 TCGA-05-4390-01A TCGA-05-4390 tumor 165.   0     97.7   64.9   0.639
##  8 TCGA-05-4395-01A TCGA-05-4395 tumor  22.0  0      0    181.  391.   
##  9 TCGA-05-4396-01A TCGA-05-4396 tumor  17.4 15.9    0    134.    0.758
## 10 TCGA-05-4397-01A TCGA-05-4397 tumor 127.   0      0    229.   19.2  
## # … with 560 more rows
…
interros <- rbind(l[[1]], l[[2]])
interros

## # A tibble: 205 × 8
##    id     height gender      X interro1 interro2 interro3 interro4
##    <chr>   <dbl> <chr>   <dbl>    <dbl>    <dbl>    <dbl>    <dbl>
##  1 A74890    168 M       1.43        16       18        7       10
##  2 A85494    167 M       1.05        15       18       13       NA
##  3 A51820    166 M       0.435        4       10       NA        7
##  4 A98669    164 M       0.715       15       15       18       13
##  5 A75521    171 M       0.917       18       10       17       NA
##  6 A96704    178 F      -2.66        11       20       14       17
##  7 A23214    155 M       1.11        12        2        8       14
##  8 A31124    177 M      -0.485       19        4        8       20
##  9 A80471    187 F       0.231       19       16       16        8
## 10 A21783    195 F      -0.295       13       11        8       20
## # … with 195 more rows
…
One way would be to check the number of students that tool the two
tests, and add a new column based on these values. We still have the
two dataframes in the l list, which allows us to calculate the
respective number of rows and use this information to create a group
variables.

sapply(l, nrow)

## [1] 100 105

interros$group <- c(rep("A", nrow(l[[1]])),
                    rep("B", nrow(l[[2]])))
interros

## # A tibble: 205 × 9
##    id     height gender      X interro1 interro2 interro3 interro4 group
##    <chr>   <dbl> <chr>   <dbl>    <dbl>    <dbl>    <dbl>    <dbl> <chr>
##  1 A74890    168 M       1.43        16       18        7       10 A    
##  2 A85494    167 M       1.05        15       18       13       NA A    
##  3 A51820    166 M       0.435        4       10       NA        7 A    
##  4 A98669    164 M       0.715       15       15       18       13 A    
##  5 A75521    171 M       0.917       18       10       17       NA A    
##  6 A96704    178 F      -2.66        11       20       14       17 A    
##  7 A23214    155 M       1.11        12        2        8       14 A    
##  8 A31124    177 M      -0.485       19        4        8       20 A    
##  9 A80471    187 F       0.231       19       16       16        8 A    
## 10 A21783    195 F      -0.295       13       11        8       20 A    
## # … with 195 more rows
…
We obtain a new tibble that contains 4 times more rows that initially,
as the tests, that were in 4 different columns, have now been gathered
as a single new variable.

interros2 <- pivot_longer(interros,
                          names_to = "test",
                          values_to = "score",
                          starts_with("interro"))
interros2

## # A tibble: 820 × 7
##    id     height gender     X group test     score
##    <chr>   <dbl> <chr>  <dbl> <chr> <chr>    <dbl>
##  1 A74890    168 M      1.43  A     interro1    16
##  2 A74890    168 M      1.43  A     interro2    18
##  3 A74890    168 M      1.43  A     interro3     7
##  4 A74890    168 M      1.43  A     interro4    10
##  5 A85494    167 M      1.05  A     interro1    15
##  6 A85494    167 M      1.05  A     interro2    18
##  7 A85494    167 M      1.05  A     interro3    13
##  8 A85494    167 M      1.05  A     interro4    NA
##  9 A51820    166 M      0.435 A     interro1     4
## 10 A51820    166 M      0.435 A     interro2    10
## # … with 810 more rows
…
